%YAML 1.1
%TAG !u! tag:unity3d.com,2011:
--- !u!114 &11400000
MonoBehaviour:
  m_ObjectHideFlags: 0
  m_CorrespondingSourceObject: {fileID: 0}
  m_PrefabInternal: {fileID: 0}
  m_GameObject: {fileID: 0}
  m_Enabled: 1
  m_EditorHideFlags: 0
  m_Script: {fileID: 11500000, guid: e614f0cec2d7a834a98b16d8eb05b2a0, type: 3}
  m_Name: candle
  m_EditorClassIdentifier: 
  furnitureObject: {fileID: 1948135970254674, guid: fdca5a34e7b48864980e73c7a9a3f352,
    type: 2}
  roomType: BR
  quantityPerRoom: 2
  floor: 0
  ceiling: 0
  wall: 0
  centeredXorY: 0
  centeredZorXZ: 0
  parents:
  - mySide: 1
    parentSide: 0
    objectF: {fileID: 1200984376424830, guid: 1752f70f199ca4944b102a847d2e300a, type: 2}
